Daten | Interaktive Datenvisualisierung mit Shiny
…
  Skip to main content

        Interaktive Datenvisualisierung mit Shiny

      Show table of contents

Daten

library(tidyverse)

mobile <- read_csv("https://raw.githubusercontent.com/rfordatascience/tidytuesday/master/data/2020/2020-11-10/mobile.csv",
                   col_types = "cciinnc")
mobile

# A tibble: 6,277 x 7
  entity      code   year total_pop gdp_per_cap mobile_subs continent
  <chr>       <chr> <int>     <int>       <dbl>       <dbl> <chr>    
1 Afghanistan AFG    1990  13032161          NA           0 Asia     
2 Afghanistan AFG    1991  14069854          NA           0 Asia     
3 Afghanistan AFG    1992  15472076          NA           0 Asia     
4 Afghanistan AFG    1993  17053213          NA           0 Asia     
5 Afghanistan AFG    1994  18553819          NA           0 Asia     
6 Afghanistan AFG    1995  19789880          NA           0 Asia     
# … with 6,271 more rows
…
